…
### Finding gaps in the data

We can use `find_gaps()` to find the gaps in a column of data. `start` and `end` are the nearest non-`NA` values. Those values are in `start_value` and `end_value`. The number of `NA` values is in `na_size`.

``` r
find_gaps(df, GazeX)
#> # A tibble: 579 x 7
#>     .var start   end na_size start_value end_value  change
#>    <chr> <dbl> <dbl>   <dbl>       <dbl>     <dbl>   <dbl>
#>  1 GazeX     1     4       2    1176.452  1184.452   8.000
#>  2 GazeX     5     7       1    1224.841  1187.916 -36.925
#>  3 GazeX     8    10       1    1203.642  1188.502 -15.140
#>  4 GazeX    11    13       1    1158.650  1171.602  12.952
#>  5 GazeX    14    16       1    1218.452  1188.027 -30.425
#>  6 GazeX    17    20       2    1208.003  1156.564 -51.439
#>  7 GazeX    20    22       1    1156.564  1191.023  34.459
#>  8 GazeX    23    25       1    1164.210  1171.983   7.773
#>  9 GazeX    26    28       1    1158.890  1194.300  35.410
#> 10 GazeX    29    31       1    1207.380  1179.723 -27.657
#> # ... with 569 more rows
```

The function also respects dplyr grouping, so that e.g, false gaps are not found between trials.

``` r
df %>% 
  group_by(Trial) %>% 
  find_gaps(GazeX)
#> # A tibble: 561 x 8
#>    Trial  .var start   end na_size start_value end_value  change
#>    <int> <chr> <dbl> <dbl>   <dbl>       <dbl>     <dbl>   <dbl>
#>  1     1 GazeX     1     4       2    1176.452  1184.452   8.000
#>  2     1 GazeX     5     7       1    1224.841  1187.916 -36.925
#>  3     1 GazeX     8    10       1    1203.642  1188.502 -15.140
#>  4     1 GazeX    11    13       1    1158.650  1171.602  12.952
#>  5     1 GazeX    14    16       1    1218.452  1188.027 -30.425
#>  6     1 GazeX    17    20       2    1208.003  1156.564 -51.439
#>  7     1 GazeX    20    22       1    1156.564  1191.023  34.459
#>  8     1 GazeX    23    25       1    1164.210  1171.983   7.773
#>  9     1 GazeX    26    28       1    1158.890  1194.300  35.410
#> 10     1 GazeX    29    31       1    1207.380  1179.723 -27.657
#> # ... with 551 more rows
…
